<svg width="16" height="16" viewBox="0 0 16 16" fill="none" xmlns="http://www.w3.org/2000/svg">
<path d="M9.49402 6.50541C9.16735 6.17874 8.79268 5.92007 8.38802 5.72607C8.13802 5.97741 7.99935 6.31207 7.99935 6.66674C7.99935 6.80874 8.02602 6.94341 8.06735 7.07207C8.24002 7.17941 8.40402 7.30074 8.55135 7.44807C9.05468 7.95207 9.33268 8.62141 9.33268 9.33341C9.33268 10.0454 9.05535 10.7154 8.55202 11.2194L6.55202 13.2187C5.54402 14.2267 3.78802 14.2267 2.78068 13.2187C2.27668 12.7147 1.99935 12.0454 1.99935 11.3334C1.99935 10.6214 2.27668 9.95207 2.78002 9.44807L4.18268 8.04541C4.06468 7.60074 3.99935 7.13941 3.99935 6.66674C3.99935 6.55874 4.00802 6.45141 4.01468 6.34474C3.95535 6.39741 3.89468 6.44874 3.83735 6.50541L1.83735 8.50541C1.08202 9.26074 0.666016 10.2647 0.666016 11.3334C0.666016 12.4021 1.08202 13.4061 1.83735 14.1614C2.59335 14.9174 3.59735 15.3334 4.66602 15.3334C5.73468 15.3334 6.73868 14.9174 7.49468 14.1614L9.49468 12.1621C10.2493 11.4061 10.666 10.4021 10.666 9.33341C10.666 8.26474 10.2493 7.26074 9.49402 6.50541Z" fill="#8C8C8C"/>
<path d="M14.1627 1.83875C13.4067 1.08275 12.4027 0.666748 11.334 0.666748C10.2653 0.666748 9.26132 1.08275 8.50532 1.83875L6.50532 3.83808C5.75065 4.59408 5.33398 5.59808 5.33398 6.66675C5.33398 7.73541 5.74998 8.73941 6.50532 9.49475C6.83198 9.82141 7.20665 10.0801 7.61132 10.2741C7.86198 10.0227 8.00065 9.68808 8.00065 9.33341C8.00065 9.18808 7.97332 9.05008 7.92998 8.91875C7.75798 8.81541 7.59465 8.69741 7.44932 8.55208C6.94532 8.04808 6.66732 7.37875 6.66732 6.66675C6.66732 5.95475 6.94465 5.28475 7.44798 4.78075L9.44798 2.78141C9.95198 2.27741 10.622 2.00008 11.334 2.00008C12.046 2.00008 12.716 2.27741 13.22 2.78141C13.7233 3.28541 14.0007 3.95475 14.0007 4.66675C14.0007 5.37875 13.7233 6.04808 13.22 6.55208L11.8153 7.95675C11.934 8.40075 12.0007 8.86141 12.0007 9.33341C12.0007 9.44141 11.9927 9.54808 11.9867 9.65475C12.046 9.60208 12.1067 9.55141 12.1633 9.49475L14.1633 7.49475C14.918 6.73941 15.334 5.73541 15.334 4.66675C15.334 3.59808 14.918 2.59408 14.1627 1.83875Z" fill="#8C8C8C"/>
</svg>
