<svg width="48" height="47" viewBox="0 0 48 47" fill="none" xmlns="http://www.w3.org/2000/svg">
<path d="M22.2606 24.772C22.2606 23.0521 20.8548 21.6357 19.1156 21.6357C17.391 21.6357 15.9707 23.0376 15.9707 24.772C15.9707 26.4918 17.3765 27.9082 19.1156 27.9082C20.8403 27.9082 22.2606 26.4918 22.2606 24.772Z" fill="#FFBE07"/>
<path d="M28.043 24.5406C28.043 26.2749 29.4633 27.7057 31.2169 27.7057C32.9705 27.7057 34.3908 26.2894 34.3908 24.5406C34.3908 22.7918 32.9705 21.3755 31.2169 21.3755C29.4633 21.3755 28.043 22.8063 28.043 24.5406Z" fill="#FFBE07"/>
<path d="M35.2464 33.1688C34.3768 34.2383 33.3768 35.1344 32.2464 35.857C31.1159 36.5796 29.8986 37.1288 28.5942 37.4902C27.2754 37.8515 25.942 38.0394 24.5797 38.0394C22.6377 38.0394 20.8116 37.678 19.087 36.941C18.5217 36.6953 17.971 36.4207 17.4493 36.1172L10.5797 38.314L12.3333 30.8708C12.0435 30.365 11.7826 29.8447 11.5507 29.2811C10.8116 27.5178 10.4493 25.5956 10.4493 23.5289C10.4493 21.4622 10.8116 19.54 11.5507 17.7768C12.2899 16.0135 13.3043 14.4671 14.5797 13.1808C15.8551 11.8801 17.3623 10.8684 19.0725 10.1313C20.7971 9.39422 22.6232 9.0329 24.5652 9.0329C25.9275 9.0329 27.2754 9.22079 28.5797 9.59656C29.8841 9.97232 31.1159 10.5215 32.2464 11.2442C33.3768 11.9668 34.3913 12.8773 35.2609 13.9468C36.1304 15.0307 36.8116 16.2592 37.2899 17.6467L47.971 17.6756C47.5507 15.6811 46.913 13.8456 46.0435 12.198C45.1739 10.5504 44.1304 9.07626 42.9275 7.77552C41.7246 6.47478 40.3913 5.33303 38.9275 4.3647C37.4783 3.35301 35.942 2.55812 34.3478 1.90775C32.7536 1.27183 31.1159 0.794895 29.4493 0.476937C27.7826 0.158979 26.1594 0 24.5797 0C22.3043 0 20.1304 0.2746 18.029 0.823801C15.9275 1.373 13.971 2.15344 12.1594 3.17958C10.3478 4.20572 8.68116 5.41974 7.2029 6.8361C5.71014 8.25246 4.43478 9.84225 3.36232 11.591C2.28986 13.3398 1.46377 15.2186 0.869565 17.2131C0.289855 19.2076 0 21.3032 0 23.4855C0 25.6679 0.289855 27.7491 0.869565 29.758C1.44928 31.7525 2.27536 33.6313 3.34783 35.3801C4.42029 37.1288 5.69565 38.7186 7.18841 40.1494C8.68116 41.5803 10.3333 42.7943 12.1449 43.806C13.971 44.8176 15.9275 45.5981 18.0145 46.1617C20.1159 46.7254 22.2899 47 24.5652 47C26.1739 47 27.8116 46.841 29.4783 46.5086C31.1449 46.1762 32.7681 45.6848 34.3623 45.02C35.9565 44.3552 37.4783 43.5458 38.9275 42.563C40.3768 41.5803 41.7101 40.4529 42.913 39.1522C44.1159 37.8515 45.1449 36.3918 46.029 34.7875C46.8986 33.1688 47.5507 31.3911 48 29.4545H37.2464C36.7826 30.8564 36.1159 32.0993 35.2464 33.1688Z" fill="#FFBE07"/>
</svg>
