<svg width="16" height="16" viewBox="0 0 16 16" fill="none" xmlns="http://www.w3.org/2000/svg">
<path d="M13.5199 3.82311C13.5152 3.81842 12.5652 4.75748 10.6746 6.64498L9.34805 5.31842L12.1746 2.49186C10.6871 1.59655 8.77617 1.82623 7.53711 3.0653C7.06347 3.53867 6.72263 4.12825 6.54876 4.77492C6.37489 5.42159 6.3741 6.1026 6.54648 6.74967L6.57461 6.85436L2.14492 11.2825C2.04805 11.3794 2.04805 11.5387 2.14492 11.6356L4.3543 13.845C4.45117 13.9419 4.61055 13.9419 4.70742 13.845L9.13398 9.41842L9.23867 9.44655C10.5465 9.79498 11.9512 9.43248 12.9262 8.45748C14.1668 7.21842 14.3965 5.30748 13.5199 3.82311Z" fill="#595959"/>
</svg>
