<!-- <svg width="16" height="16" viewBox="0 0 16 16" fill="none" xmlns="http://www.w3.org/2000/svg">
<path d="M15.5 6.43333H9.84996L12.1333 4.08333C9.8583 1.83333 6.17496 1.75 3.89996 4C1.62496 6.25833 1.62496 9.9 3.89996 12.1583C6.17496 14.4167 9.8583 14.4167 12.1333 12.1583C13.2666 11.0417 13.8333 9.73333 13.8333 8.08333H15.5C15.5 9.73333 14.7666 11.875 13.3 13.325C10.375 16.225 5.62496 16.225 2.69996 13.325C-0.216704 10.4333 -0.241704 5.73333 2.6833 2.84167C5.6083 -0.0500001 10.3 -0.0500001 13.225 2.84167L15.5 0.5V6.43333ZM8.41663 4.66667V8.20833L11.3333 9.94167L10.7333 10.95L7.16663 8.83333V4.66667H8.41663Z" fill="#1890FF"/>
</svg> -->
