<svg width="20" height="20" viewBox="0 0 20 20" fill="none" xmlns="http://www.w3.org/2000/svg">
<path d="M15.2146 0.833984C14.2682 0.833984 13.3429 1.11117 12.556 1.63048C11.769 2.14979 11.1557 2.88791 10.7935 3.7515C10.4313 4.61509 10.3365 5.56535 10.5212 6.48213C10.7058 7.39891 11.1616 8.24103 11.8308 8.90199C12.5001 9.56295 13.3528 10.0131 14.281 10.1954C15.2093 10.3778 16.1715 10.2842 17.0459 9.92648C17.9203 9.56877 18.6677 8.96301 19.1936 8.18581C19.7194 7.4086 20 6.49485 20 5.56011C20 4.30666 19.4959 3.10456 18.5984 2.21823C17.701 1.33191 16.4838 0.833984 15.2146 0.833984V0.833984ZM16.6502 7.59825C16.5456 7.70107 16.404 7.75879 16.2564 7.75879C16.1089 7.75879 15.9673 7.70107 15.8626 7.59825L14.4769 6.23949V3.28566C14.4769 3.13943 14.5357 2.99918 14.6404 2.89578C14.7451 2.79237 14.8871 2.73428 15.0352 2.73428C15.1832 2.73428 15.3252 2.79237 15.4299 2.89578C15.5346 2.99918 15.5935 3.13943 15.5935 3.28566V5.75703L16.6502 6.80072C16.7042 6.85287 16.7469 6.91528 16.7757 6.98418C16.8046 7.05308 16.8189 7.12704 16.818 7.20159C16.8171 7.27614 16.8008 7.34973 16.7703 7.41791C16.7397 7.48608 16.6955 7.54744 16.6403 7.59825H16.6502Z" fill="#D9D9D9"/>
<path d="M15.2136 10.7787C13.8192 10.7683 12.4854 10.2139 11.5031 9.2364C10.5208 8.25888 9.96958 6.93749 9.96962 5.56027C9.967 4.95621 10.0716 4.35637 10.2787 3.78797C9.53028 3.57101 8.75559 3.45508 7.9757 3.44336C3.57909 3.44336 0 6.7418 0 10.6802C0.0126751 11.8174 0.302951 12.9348 0.846192 13.9375C1.38943 14.9403 2.1696 15.7988 3.12049 16.4402L2.53228 19.1676L5.66275 17.6316C6.41438 17.8493 7.19247 17.9652 7.9757 17.9762C12.3922 17.9762 15.9514 14.7171 15.9514 10.7098C15.7074 10.75 15.4609 10.773 15.2136 10.7787ZM4.18724 12.039C3.99006 12.039 3.79731 11.9813 3.63336 11.8731C3.46941 11.7649 3.34163 11.6111 3.26617 11.4312C3.19071 11.2513 3.17097 11.0533 3.20944 10.8623C3.2479 10.6713 3.34285 10.4959 3.48228 10.3582C3.62171 10.2205 3.79935 10.1267 3.99274 10.0887C4.18614 10.0507 4.38659 10.0702 4.56876 10.1447C4.75093 10.2193 4.90664 10.3455 5.01619 10.5074C5.12573 10.6693 5.1842 10.8597 5.1842 11.0544C5.1842 11.3155 5.07917 11.566 4.8922 11.7506C4.70523 11.9353 4.45165 12.039 4.18724 12.039ZM8.00561 12.039C7.80843 12.039 7.61567 11.9813 7.45172 11.8731C7.28777 11.7649 7.15999 11.6111 7.08453 11.4312C7.00908 11.2513 6.98933 11.0533 7.0278 10.8623C7.06627 10.6713 7.16122 10.4959 7.30065 10.3582C7.44008 10.2205 7.61772 10.1267 7.81111 10.0887C8.0045 10.0507 8.20496 10.0702 8.38713 10.1447C8.5693 10.2193 8.725 10.3455 8.83455 10.5074C8.9441 10.6693 9.00257 10.8597 9.00257 11.0544C9.00263 11.1862 8.97589 11.3167 8.92392 11.4381C8.87196 11.5596 8.79584 11.6694 8.70007 11.7613C8.6043 11.8531 8.49084 11.925 8.36641 11.9727C8.24198 12.0204 8.10912 12.043 7.9757 12.039H8.00561ZM11.824 12.039C11.6268 12.039 11.434 11.9813 11.2701 11.8731C11.1061 11.7649 10.9784 11.6111 10.9029 11.4312C10.8274 11.2513 10.8077 11.0533 10.8462 10.8623C10.8846 10.6713 10.9796 10.4959 11.119 10.3582C11.2584 10.2205 11.4361 10.1267 11.6295 10.0887C11.8229 10.0507 12.0233 10.0702 12.2055 10.1447C12.3877 10.2193 12.5434 10.3455 12.6529 10.5074C12.7625 10.6693 12.8209 10.8597 12.8209 11.0544C12.8209 11.3155 12.7159 11.566 12.5289 11.7506C12.342 11.9353 12.0884 12.039 11.824 12.039Z" fill="#BFBFBF"/>
</svg>
