<svg width="416" height="73" viewBox="0 0 416 73" fill="none" xmlns="http://www.w3.org/2000/svg">
<rect x="0.5" y="0.5" width="415" height="72" rx="3.5" fill="white" stroke="#D9D9D9"/>
<path d="M34.7119 21.8613L37.0977 18.0469H38.6426L35.498 22.9824L38.7178 28H37.1592L34.7119 24.1172L32.251 28H30.6992L33.9258 22.9824L30.7744 18.0469H32.3125L34.7119 21.8613ZM41.418 28H40.1533V20.6035H41.418V28ZM40.0508 18.6416C40.0508 18.4365 40.1123 18.2633 40.2354 18.1221C40.363 17.9808 40.5498 17.9102 40.7959 17.9102C41.042 17.9102 41.2288 17.9808 41.3564 18.1221C41.484 18.2633 41.5479 18.4365 41.5479 18.6416C41.5479 18.8467 41.484 19.0176 41.3564 19.1543C41.2288 19.291 41.042 19.3594 40.7959 19.3594C40.5498 19.3594 40.363 19.291 40.2354 19.1543C40.1123 19.0176 40.0508 18.8467 40.0508 18.6416ZM44.6445 20.6035L44.6855 21.5332C45.2507 20.8223 45.9889 20.4668 46.9004 20.4668C48.4635 20.4668 49.252 21.3486 49.2656 23.1123V28H48.001V23.1055C47.9964 22.5723 47.8734 22.1781 47.6318 21.9229C47.3949 21.6676 47.0234 21.54 46.5176 21.54C46.1074 21.54 45.7474 21.6494 45.4375 21.8682C45.1276 22.0869 44.8861 22.374 44.7129 22.7295V28H43.4482V20.6035H44.6445ZM56.3613 18.8125V20.6035H57.7422V21.5811H56.3613V26.168C56.3613 26.4642 56.4229 26.6875 56.5459 26.8379C56.6689 26.9837 56.8786 27.0566 57.1748 27.0566C57.3206 27.0566 57.5212 27.0293 57.7764 26.9746V28C57.4437 28.0911 57.1201 28.1367 56.8057 28.1367C56.2406 28.1367 55.8145 27.9658 55.5273 27.624C55.2402 27.2822 55.0967 26.7969 55.0967 26.168V21.5811H53.75V20.6035H55.0967V18.8125H56.3613ZM60.4902 21.499C61.0508 20.8109 61.7799 20.4668 62.6777 20.4668C64.2409 20.4668 65.0293 21.3486 65.043 23.1123V28H63.7783V23.1055C63.7738 22.5723 63.6507 22.1781 63.4092 21.9229C63.1722 21.6676 62.8008 21.54 62.2949 21.54C61.8848 21.54 61.5247 21.6494 61.2148 21.8682C60.9049 22.0869 60.6634 22.374 60.4902 22.7295V28H59.2256V17.5H60.4902V21.499ZM66.6016 24.2334C66.6016 23.5088 66.7428 22.8571 67.0254 22.2783C67.3125 21.6995 67.709 21.2529 68.2148 20.9385C68.7253 20.624 69.3063 20.4668 69.958 20.4668C70.9652 20.4668 71.7786 20.8154 72.3984 21.5127C73.0228 22.21 73.335 23.1374 73.335 24.2949V24.3838C73.335 25.1038 73.196 25.751 72.918 26.3252C72.6445 26.8949 72.2503 27.3392 71.7354 27.6582C71.2249 27.9772 70.637 28.1367 69.9717 28.1367C68.9691 28.1367 68.1556 27.7881 67.5312 27.0908C66.9115 26.3936 66.6016 25.4707 66.6016 24.3223V24.2334ZM67.873 24.3838C67.873 25.2041 68.0622 25.8626 68.4404 26.3594C68.8232 26.8561 69.3337 27.1045 69.9717 27.1045C70.6143 27.1045 71.1247 26.8538 71.5029 26.3525C71.8812 25.8467 72.0703 25.1403 72.0703 24.2334C72.0703 23.4222 71.8766 22.766 71.4893 22.2646C71.1064 21.7588 70.596 21.5059 69.958 21.5059C69.3337 21.5059 68.8301 21.7542 68.4473 22.251C68.0645 22.7477 67.873 23.4587 67.873 24.3838ZM71.9814 19.373V19.4414H70.9355L69.9102 18.2793L68.8916 19.4414H67.8457V19.3594L69.5273 17.5H70.293L71.9814 19.373ZM76.1172 20.6035L76.1582 21.5332C76.7233 20.8223 77.4616 20.4668 78.373 20.4668C79.9362 20.4668 80.7246 21.3486 80.7383 23.1123V28H79.4736V23.1055C79.4691 22.5723 79.346 22.1781 79.1045 21.9229C78.8675 21.6676 78.4961 21.54 77.9902 21.54C77.5801 21.54 77.2201 21.6494 76.9102 21.8682C76.6003 22.0869 76.3587 22.374 76.1855 22.7295V28H74.9209V20.6035H76.1172ZM82.3447 24.2402C82.3447 23.0872 82.6113 22.1712 83.1445 21.4922C83.6777 20.8086 84.3841 20.4668 85.2637 20.4668C86.166 20.4668 86.8701 20.7858 87.376 21.4238L87.4375 20.6035H88.5928V27.8223C88.5928 28.7793 88.3079 29.5335 87.7383 30.085C87.1732 30.6364 86.4121 30.9121 85.4551 30.9121C84.9219 30.9121 84.4001 30.7982 83.8896 30.5703C83.3792 30.3424 82.9896 30.0303 82.7207 29.6338L83.377 28.875C83.9193 29.5449 84.5824 29.8799 85.3662 29.8799C85.9814 29.8799 86.46 29.7067 86.8018 29.3604C87.1481 29.014 87.3213 28.5264 87.3213 27.8975V27.2617C86.8154 27.8451 86.125 28.1367 85.25 28.1367C84.3841 28.1367 83.6823 27.7881 83.1445 27.0908C82.6113 26.3936 82.3447 25.4434 82.3447 24.2402ZM83.6162 24.3838C83.6162 25.2178 83.7871 25.874 84.1289 26.3525C84.4707 26.8265 84.9492 27.0635 85.5645 27.0635C86.362 27.0635 86.9476 26.7012 87.3213 25.9766V22.5996C86.9339 21.8932 86.3529 21.54 85.5781 21.54C84.9629 21.54 84.4821 21.7793 84.1357 22.2578C83.7894 22.7363 83.6162 23.445 83.6162 24.3838ZM95.6953 18.8125V20.6035H97.0762V21.5811H95.6953V26.168C95.6953 26.4642 95.7568 26.6875 95.8799 26.8379C96.0029 26.9837 96.2126 27.0566 96.5088 27.0566C96.6546 27.0566 96.8551 27.0293 97.1104 26.9746V28C96.7777 28.0911 96.4541 28.1367 96.1396 28.1367C95.5745 28.1367 95.1484 27.9658 94.8613 27.624C94.5742 27.2822 94.4307 26.7969 94.4307 26.168V21.5811H93.084V20.6035H94.4307V18.8125H95.6953ZM99.9336 28H98.6689V20.6035H99.9336V28ZM98.5664 18.6416C98.5664 18.4365 98.6279 18.2633 98.751 18.1221C98.8786 17.9808 99.0654 17.9102 99.3115 17.9102C99.5576 17.9102 99.7445 17.9808 99.8721 18.1221C99.9997 18.2633 100.063 18.4365 100.063 18.6416C100.063 18.8467 99.9997 19.0176 99.8721 19.1543C99.7445 19.291 99.5576 19.3594 99.3115 19.3594C99.0654 19.3594 98.8786 19.291 98.751 19.1543C98.6279 19.0176 98.5664 18.8467 98.5664 18.6416ZM103.16 20.6035L103.201 21.5332C103.766 20.8223 104.505 20.4668 105.416 20.4668C106.979 20.4668 107.768 21.3486 107.781 23.1123V28H106.517V23.1055C106.512 22.5723 106.389 22.1781 106.147 21.9229C105.91 21.6676 105.539 21.54 105.033 21.54C104.623 21.54 104.263 21.6494 103.953 21.8682C103.643 22.0869 103.402 22.374 103.229 22.7295V28H101.964V20.6035H103.16ZM112.86 24.2402C112.86 23.0872 113.127 22.1712 113.66 21.4922C114.193 20.8086 114.9 20.4668 115.779 20.4668C116.682 20.4668 117.386 20.7858 117.892 21.4238L117.953 20.6035H119.108V27.8223C119.108 28.7793 118.824 29.5335 118.254 30.085C117.689 30.6364 116.928 30.9121 115.971 30.9121C115.438 30.9121 114.916 30.7982 114.405 30.5703C113.895 30.3424 113.505 30.0303 113.236 29.6338L113.893 28.875C114.435 29.5449 115.098 29.8799 115.882 29.8799C116.497 29.8799 116.976 29.7067 117.317 29.3604C117.664 29.014 117.837 28.5264 117.837 27.8975V27.2617C117.331 27.8451 116.641 28.1367 115.766 28.1367C114.9 28.1367 114.198 27.7881 113.66 27.0908C113.127 26.3936 112.86 25.4434 112.86 24.2402ZM114.132 24.3838C114.132 25.2178 114.303 25.874 114.645 26.3525C114.986 26.8265 115.465 27.0635 116.08 27.0635C116.878 27.0635 117.463 26.7012 117.837 25.9766V22.5996C117.45 21.8932 116.868 21.54 116.094 21.54C115.479 21.54 114.998 21.7793 114.651 22.2578C114.305 22.7363 114.132 23.445 114.132 24.3838ZM122.396 28H121.132V20.6035H122.396V28ZM121.029 18.6416C121.029 18.4365 121.091 18.2633 121.214 18.1221C121.341 17.9808 121.528 17.9102 121.774 17.9102C122.021 17.9102 122.207 17.9808 122.335 18.1221C122.463 18.2633 122.526 18.4365 122.526 18.6416C122.526 18.8467 122.463 19.0176 122.335 19.1543C122.207 19.291 122.021 19.3594 121.774 19.3594C121.528 19.3594 121.341 19.291 121.214 19.1543C121.091 19.0176 121.029 18.8467 121.029 18.6416ZM128.993 28C128.92 27.8542 128.861 27.5944 128.815 27.2207C128.228 27.8314 127.526 28.1367 126.71 28.1367C125.981 28.1367 125.382 27.9316 124.912 27.5215C124.447 27.1068 124.215 26.5827 124.215 25.9492C124.215 25.179 124.507 24.582 125.09 24.1582C125.678 23.7298 126.503 23.5156 127.564 23.5156H128.795V22.9346C128.795 22.4925 128.663 22.1416 128.398 21.8818C128.134 21.6175 127.744 21.4854 127.229 21.4854C126.778 21.4854 126.4 21.5993 126.095 21.8271C125.789 22.055 125.637 22.3307 125.637 22.6543H124.365C124.365 22.2852 124.495 21.9297 124.755 21.5879C125.019 21.2415 125.375 20.9681 125.821 20.7676C126.272 20.5671 126.767 20.4668 127.305 20.4668C128.157 20.4668 128.825 20.681 129.308 21.1094C129.791 21.5332 130.041 22.1188 130.06 22.8662V26.2705C130.06 26.9495 130.146 27.4896 130.319 27.8906V28H128.993ZM126.895 27.0361C127.291 27.0361 127.667 26.9336 128.022 26.7285C128.378 26.5234 128.635 26.2568 128.795 25.9287V24.4111H127.804C126.254 24.4111 125.479 24.8646 125.479 25.7715C125.479 26.168 125.612 26.4779 125.876 26.7012C126.14 26.9245 126.48 27.0361 126.895 27.0361ZM128.063 17.5H129.595L127.763 19.5098H126.744L128.063 17.5Z" fill="#BFBFBF"/>
<rect x="20.1729" y="11.5" width="125.306" height="23" rx="11.5" stroke="#BFBFBF"/>
<path d="M203.176 26.6943C202.839 27.1774 202.367 27.5397 201.761 27.7812C201.159 28.0182 200.457 28.1367 199.655 28.1367C198.844 28.1367 198.124 27.9476 197.495 27.5693C196.866 27.1865 196.379 26.6442 196.032 25.9424C195.69 25.2406 195.515 24.4271 195.506 23.502V22.6338C195.506 21.1344 195.854 19.9723 196.552 19.1475C197.254 18.3226 198.238 17.9102 199.505 17.9102C200.544 17.9102 201.38 18.1768 202.014 18.71C202.647 19.2386 203.035 19.9906 203.176 20.9658H201.863C201.617 19.6488 200.833 18.9902 199.512 18.9902C198.632 18.9902 197.965 19.3001 197.509 19.9199C197.058 20.5352 196.83 21.4284 196.825 22.5996V23.4131C196.825 24.5296 197.08 25.4183 197.591 26.0791C198.101 26.7354 198.792 27.0635 199.662 27.0635C200.154 27.0635 200.585 27.0088 200.954 26.8994C201.323 26.79 201.629 26.6055 201.87 26.3457V24.1104H199.566V23.0439H203.176V26.6943ZM206.546 28H205.281V20.6035H206.546V28ZM205.179 18.6416C205.179 18.4365 205.24 18.2633 205.363 18.1221C205.491 17.9808 205.678 17.9102 205.924 17.9102C206.17 17.9102 206.357 17.9808 206.484 18.1221C206.612 18.2633 206.676 18.4365 206.676 18.6416C206.676 18.8467 206.612 19.0176 206.484 19.1543C206.357 19.291 206.17 19.3594 205.924 19.3594C205.678 19.3594 205.491 19.291 205.363 19.1543C205.24 19.0176 205.179 18.8467 205.179 18.6416ZM213.143 28C213.07 27.8542 213.01 27.5944 212.965 27.2207C212.377 27.8314 211.675 28.1367 210.859 28.1367C210.13 28.1367 209.531 27.9316 209.062 27.5215C208.597 27.1068 208.364 26.5827 208.364 25.9492C208.364 25.179 208.656 24.582 209.239 24.1582C209.827 23.7298 210.652 23.5156 211.714 23.5156H212.944V22.9346C212.944 22.4925 212.812 22.1416 212.548 21.8818C212.284 21.6175 211.894 21.4854 211.379 21.4854C210.928 21.4854 210.549 21.5993 210.244 21.8271C209.939 22.055 209.786 22.3307 209.786 22.6543H208.515C208.515 22.2852 208.645 21.9297 208.904 21.5879C209.169 21.2415 209.524 20.9681 209.971 20.7676C210.422 20.5671 210.916 20.4668 211.454 20.4668C212.306 20.4668 212.974 20.681 213.457 21.1094C213.94 21.5332 214.191 22.1188 214.209 22.8662V26.2705C214.209 26.9495 214.296 27.4896 214.469 27.8906V28H213.143ZM211.044 27.0361C211.44 27.0361 211.816 26.9336 212.172 26.7285C212.527 26.5234 212.785 26.2568 212.944 25.9287V24.4111H211.953C210.404 24.4111 209.629 24.8646 209.629 25.7715C209.629 26.168 209.761 26.4779 210.025 26.7012C210.29 26.9245 210.629 27.0361 211.044 27.0361ZM212.213 17.5H213.744L211.912 19.5098H210.894L212.213 17.5ZM220.86 20.6035L220.901 21.5332C221.466 20.8223 222.205 20.4668 223.116 20.4668C224.679 20.4668 225.468 21.3486 225.481 23.1123V28H224.217V23.1055C224.212 22.5723 224.089 22.1781 223.848 21.9229C223.611 21.6676 223.239 21.54 222.733 21.54C222.323 21.54 221.963 21.6494 221.653 21.8682C221.343 22.0869 221.102 22.374 220.929 22.7295V28H219.664V20.6035H220.86ZM228.653 21.499C229.214 20.8109 229.943 20.4668 230.841 20.4668C232.404 20.4668 233.192 21.3486 233.206 23.1123V28H231.941V23.1055C231.937 22.5723 231.814 22.1781 231.572 21.9229C231.335 21.6676 230.964 21.54 230.458 21.54C230.048 21.54 229.688 21.6494 229.378 21.8682C229.068 22.0869 228.826 22.374 228.653 22.7295V28H227.389V17.5H228.653V21.499ZM242.995 20.0156C242.995 20.8359 242.826 21.4147 242.489 21.752C242.157 22.0846 241.626 22.2601 240.896 22.2783V28H239.693L239.666 27.2686C239.174 27.8473 238.451 28.1367 237.499 28.1367C236.711 28.1367 236.109 27.9089 235.694 27.4531C235.284 26.9928 235.077 26.3138 235.072 25.416V20.6035H236.337V25.3818C236.337 26.5029 236.793 27.0635 237.704 27.0635C238.67 27.0635 239.313 26.7035 239.632 25.9834V20.6035H240.896V21.499C241.206 21.4899 241.439 21.4466 241.594 21.3691C241.749 21.2871 241.858 21.1641 241.922 21C241.99 20.8359 242.024 20.5078 242.024 20.0156H242.995ZM248.437 20.6035L248.478 21.5332C249.043 20.8223 249.781 20.4668 250.692 20.4668C252.256 20.4668 253.044 21.3486 253.058 23.1123V28H251.793V23.1055C251.788 22.5723 251.665 22.1781 251.424 21.9229C251.187 21.6676 250.815 21.54 250.31 21.54C249.899 21.54 249.539 21.6494 249.229 21.8682C248.92 22.0869 248.678 22.374 248.505 22.7295V28H247.24V20.6035H248.437ZM259.531 28C259.458 27.8542 259.399 27.5944 259.354 27.2207C258.766 27.8314 258.064 28.1367 257.248 28.1367C256.519 28.1367 255.92 27.9316 255.45 27.5215C254.985 27.1068 254.753 26.5827 254.753 25.9492C254.753 25.179 255.045 24.582 255.628 24.1582C256.216 23.7298 257.041 23.5156 258.103 23.5156H259.333V22.9346C259.333 22.4925 259.201 22.1416 258.937 21.8818C258.672 21.6175 258.283 21.4854 257.768 21.4854C257.316 21.4854 256.938 21.5993 256.633 21.8271C256.327 22.055 256.175 22.3307 256.175 22.6543H254.903C254.903 22.2852 255.033 21.9297 255.293 21.5879C255.557 21.2415 255.913 20.9681 256.359 20.7676C256.811 20.5671 257.305 20.4668 257.843 20.4668C258.695 20.4668 259.363 20.681 259.846 21.1094C260.329 21.5332 260.579 22.1188 260.598 22.8662V26.2705C260.598 26.9495 260.684 27.4896 260.857 27.8906V28H259.531ZM257.433 27.0361C257.829 27.0361 258.205 26.9336 258.561 26.7285C258.916 26.5234 259.174 26.2568 259.333 25.9287V24.4111H258.342C256.792 24.4111 256.018 24.8646 256.018 25.7715C256.018 26.168 256.15 26.4779 256.414 26.7012C256.678 26.9245 257.018 27.0361 257.433 27.0361ZM258.704 19.5098H257.617L255.854 17.5H257.378L258.704 19.5098ZM262.245 24.2334C262.245 23.5088 262.386 22.8571 262.669 22.2783C262.956 21.6995 263.353 21.2529 263.858 20.9385C264.369 20.624 264.95 20.4668 265.602 20.4668C266.609 20.4668 267.422 20.8154 268.042 21.5127C268.666 22.21 268.979 23.1374 268.979 24.2949V24.3838C268.979 25.1038 268.84 25.751 268.562 26.3252C268.288 26.8949 267.894 27.3392 267.379 27.6582C266.868 27.9772 266.281 28.1367 265.615 28.1367C264.613 28.1367 263.799 27.7881 263.175 27.0908C262.555 26.3936 262.245 25.4707 262.245 24.3223V24.2334ZM263.517 24.3838C263.517 25.2041 263.706 25.8626 264.084 26.3594C264.467 26.8561 264.977 27.1045 265.615 27.1045C266.258 27.1045 266.768 26.8538 267.146 26.3525C267.525 25.8467 267.714 25.1403 267.714 24.2334C267.714 23.4222 267.52 22.766 267.133 22.2646C266.75 21.7588 266.24 21.5059 265.602 21.5059C264.977 21.5059 264.474 21.7542 264.091 22.251C263.708 22.7477 263.517 23.4587 263.517 24.3838Z" fill="#BFBFBF"/>
<rect x="179.606" y="11.5" width="107.706" height="23" rx="11.5" stroke="#BFBFBF"/>
<path d="M20.9092 50.96C20.9092 49.93 21.0459 48.9411 21.3193 47.9932C21.5973 47.0452 22.0098 46.1839 22.5566 45.4092C23.1035 44.6344 23.6709 44.0876 24.2588 43.7686L24.5186 44.6025C23.8532 45.113 23.3063 45.8923 22.8779 46.9404C22.4541 47.9886 22.2217 49.1621 22.1807 50.4609L22.1738 51.042C22.1738 52.8011 22.4951 54.3278 23.1377 55.6221C23.5251 56.3968 23.9854 57.0029 24.5186 57.4404L24.2588 58.2129C23.6527 57.8757 23.0739 57.3105 22.5225 56.5176C21.4469 54.9681 20.9092 53.1156 20.9092 50.96ZM30.3086 55C30.2357 54.8542 30.1764 54.5944 30.1309 54.2207C29.543 54.8314 28.8411 55.1367 28.0254 55.1367C27.2962 55.1367 26.6969 54.9316 26.2275 54.5215C25.7627 54.1068 25.5303 53.5827 25.5303 52.9492C25.5303 52.179 25.8219 51.582 26.4053 51.1582C26.9932 50.7298 27.818 50.5156 28.8799 50.5156H30.1104V49.9346C30.1104 49.4925 29.9782 49.1416 29.7139 48.8818C29.4495 48.6175 29.0599 48.4854 28.5449 48.4854C28.0938 48.4854 27.7155 48.5993 27.4102 48.8271C27.1048 49.055 26.9521 49.3307 26.9521 49.6543H25.6807C25.6807 49.2852 25.8105 48.9297 26.0703 48.5879C26.3346 48.2415 26.6901 47.9681 27.1367 47.7676C27.5879 47.5671 28.0824 47.4668 28.6201 47.4668C29.4723 47.4668 30.14 47.681 30.623 48.1094C31.1061 48.5332 31.3568 49.1188 31.375 49.8662V53.2705C31.375 53.9495 31.4616 54.4896 31.6348 54.8906V55H30.3086ZM28.21 54.0361C28.6064 54.0361 28.9824 53.9336 29.3379 53.7285C29.6934 53.5234 29.9508 53.2568 30.1104 52.9287V51.4111H29.1191C27.5697 51.4111 26.7949 51.8646 26.7949 52.7715C26.7949 53.168 26.9271 53.4779 27.1914 53.7012C27.4557 53.9245 27.7952 54.0361 28.21 54.0361ZM28.2441 44.7119H29.2832L31.2656 46.5098H29.9189L28.7637 45.4229L27.6016 46.5098H26.248L28.2441 44.7119ZM31.7305 43.5293H33.0977L31.7236 45.2998H30.7598L31.7305 43.5293ZM34.5537 47.6035L34.5947 48.5332C35.1598 47.8223 35.8981 47.4668 36.8096 47.4668C38.3727 47.4668 39.1611 48.3486 39.1748 50.1123V55H37.9102V50.1055C37.9056 49.5723 37.7826 49.1781 37.541 48.9229C37.304 48.6676 36.9326 48.54 36.4268 48.54C36.0166 48.54 35.6566 48.6494 35.3467 48.8682C35.0368 49.0869 34.7952 49.374 34.6221 49.7295V55H33.3574V47.6035H34.5537ZM45.4434 44.3701L46.168 44.8623C45.7441 45.4411 45.5254 46.0654 45.5117 46.7354V47.665H44.2539V46.8721C44.2539 46.4072 44.3633 45.9469 44.582 45.4912C44.8053 45.0355 45.0924 44.6618 45.4434 44.3701ZM50.0166 55.1367C49.014 55.1367 48.1982 54.8086 47.5693 54.1523C46.9404 53.4915 46.626 52.6097 46.626 51.5068V51.2744C46.626 50.5407 46.765 49.8867 47.043 49.3125C47.3255 48.7337 47.7174 48.2826 48.2188 47.959C48.7246 47.6309 49.2715 47.4668 49.8594 47.4668C50.821 47.4668 51.5684 47.7835 52.1016 48.417C52.6348 49.0505 52.9014 49.9574 52.9014 51.1377V51.6641H47.8906C47.9089 52.3932 48.1208 52.9834 48.5264 53.4346C48.9365 53.8812 49.4561 54.1045 50.085 54.1045C50.5316 54.1045 50.9098 54.0133 51.2197 53.8311C51.5296 53.6488 51.8008 53.4072 52.0332 53.1064L52.8057 53.708C52.1859 54.6605 51.2562 55.1367 50.0166 55.1367ZM49.8594 48.5059C49.349 48.5059 48.9206 48.6927 48.5742 49.0664C48.2279 49.4355 48.0137 49.9551 47.9316 50.625H51.6367V50.5293C51.6003 49.8867 51.4271 49.39 51.1172 49.0391C50.8073 48.6836 50.388 48.5059 49.8594 48.5059ZM55.5674 47.6035L55.6084 48.5332C56.1735 47.8223 56.9118 47.4668 57.8232 47.4668C59.3864 47.4668 60.1748 48.3486 60.1885 50.1123V55H58.9238V50.1055C58.9193 49.5723 58.7962 49.1781 58.5547 48.9229C58.3177 48.6676 57.9463 48.54 57.4404 48.54C57.0303 48.54 56.6702 48.6494 56.3604 48.8682C56.0505 49.0869 55.8089 49.374 55.6357 49.7295V55H54.3711V47.6035H55.5674ZM63.8115 45.8125V47.6035H65.1924V48.5811H63.8115V53.168C63.8115 53.4642 63.873 53.6875 63.9961 53.8379C64.1191 53.9837 64.3288 54.0566 64.625 54.0566C64.7708 54.0566 64.9714 54.0293 65.2266 53.9746V55C64.8939 55.0911 64.5703 55.1367 64.2559 55.1367C63.6908 55.1367 63.2646 54.9658 62.9775 54.624C62.6904 54.2822 62.5469 53.7969 62.5469 53.168V48.5811H61.2002V47.6035H62.5469V45.8125H63.8115ZM69.7451 55.1367C68.7425 55.1367 67.9268 54.8086 67.2979 54.1523C66.6689 53.4915 66.3545 52.6097 66.3545 51.5068V51.2744C66.3545 50.5407 66.4935 49.8867 66.7715 49.3125C67.054 48.7337 67.446 48.2826 67.9473 47.959C68.4531 47.6309 69 47.4668 69.5879 47.4668C70.5495 47.4668 71.2969 47.7835 71.8301 48.417C72.3633 49.0505 72.6299 49.9574 72.6299 51.1377V51.6641H67.6191C67.6374 52.3932 67.8493 52.9834 68.2549 53.4346C68.665 53.8812 69.1846 54.1045 69.8135 54.1045C70.2601 54.1045 70.6383 54.0133 70.9482 53.8311C71.2581 53.6488 71.5293 53.4072 71.7617 53.1064L72.5342 53.708C71.9144 54.6605 70.9847 55.1367 69.7451 55.1367ZM69.5879 48.5059C69.0775 48.5059 68.6491 48.6927 68.3027 49.0664C67.9564 49.4355 67.7422 49.9551 67.6602 50.625H71.3652V50.5293C71.3288 49.8867 71.1556 49.39 70.8457 49.0391C70.5358 48.6836 70.1165 48.5059 69.5879 48.5059ZM77.6748 48.7383C77.4834 48.7064 77.276 48.6904 77.0527 48.6904C76.2233 48.6904 75.6605 49.0436 75.3643 49.75V55H74.0996V47.6035H75.3301L75.3506 48.458C75.7653 47.7972 76.3532 47.4668 77.1143 47.4668C77.3604 47.4668 77.5472 47.4987 77.6748 47.5625V48.7383ZM79.042 47.8496L78.3242 47.3574C78.748 46.765 78.9668 46.1406 78.9805 45.4844V44.5H80.2314V45.3887C80.2269 45.8444 80.113 46.3001 79.8896 46.7559C79.6709 47.207 79.3883 47.5716 79.042 47.8496ZM92.4473 46.5713H91.1621V55H90L89.9385 54.207C89.4326 54.8268 88.7285 55.1367 87.8262 55.1367C86.9694 55.1367 86.2699 54.7858 85.7275 54.084C85.1898 53.3822 84.9209 52.4661 84.9209 51.3359V51.2402C84.9209 50.1055 85.1898 49.194 85.7275 48.5059C86.2653 47.8132 86.9694 47.4668 87.8398 47.4668C88.7057 47.4668 89.3916 47.763 89.8975 48.3555V46.5713H88.0928V45.5391H89.8975V44.5H91.1621V45.5391H92.4473V46.5713ZM86.1855 51.3838C86.1855 52.2223 86.3587 52.8786 86.7051 53.3525C87.0514 53.8265 87.5299 54.0635 88.1406 54.0635C88.9427 54.0635 89.5283 53.7035 89.8975 52.9834V49.5859C89.5192 48.8887 88.9382 48.54 88.1543 48.54C87.5345 48.54 87.0514 48.7793 86.7051 49.2578C86.3587 49.7363 86.1855 50.445 86.1855 51.3838ZM96.665 55.1367C95.6624 55.1367 94.8467 54.8086 94.2178 54.1523C93.5889 53.4915 93.2744 52.6097 93.2744 51.5068V51.2744C93.2744 50.5407 93.4134 49.8867 93.6914 49.3125C93.974 48.7337 94.3659 48.2826 94.8672 47.959C95.373 47.6309 95.9199 47.4668 96.5078 47.4668C97.4694 47.4668 98.2168 47.7835 98.75 48.417C99.2832 49.0505 99.5498 49.9574 99.5498 51.1377V51.6641H94.5391C94.5573 52.3932 94.7692 52.9834 95.1748 53.4346C95.585 53.8812 96.1045 54.1045 96.7334 54.1045C97.18 54.1045 97.5583 54.0133 97.8682 53.8311C98.1781 53.6488 98.4492 53.4072 98.6816 53.1064L99.4541 53.708C98.8343 54.6605 97.9046 55.1367 96.665 55.1367ZM96.5078 48.5059C95.9974 48.5059 95.569 48.6927 95.2227 49.0664C94.8763 49.4355 94.6621 49.9551 94.5801 50.625H98.2852V50.5293C98.2487 49.8867 98.0755 49.39 97.7656 49.0391C97.4557 48.6836 97.0365 48.5059 96.5078 48.5059ZM99.0029 46.6191H97.8408L96.4941 45.3477L95.1475 46.6191H93.9922L95.8516 44.8281H97.1367L99.0029 46.6191ZM98.4355 45.6758L98.4287 44.7803C98.7249 44.762 98.9391 44.7233 99.0713 44.6641C99.208 44.6048 99.2764 44.5 99.2764 44.3496C99.2764 44.0443 98.9551 43.8916 98.3125 43.8916L98.3467 43.2627C98.93 43.2627 99.3743 43.363 99.6797 43.5635C99.985 43.764 100.138 44.0306 100.138 44.3633C100.138 44.6322 100.053 44.8418 99.8848 44.9922C99.7161 45.1426 99.4951 45.2337 99.2217 45.2656L99.2148 45.6758H98.4355ZM105.688 47.6035L105.729 48.5332C106.295 47.8223 107.033 47.4668 107.944 47.4668C109.507 47.4668 110.296 48.3486 110.31 50.1123V55H109.045V50.1055C109.04 49.5723 108.917 49.1781 108.676 48.9229C108.439 48.6676 108.067 48.54 107.562 48.54C107.151 48.54 106.791 48.6494 106.481 48.8682C106.172 49.0869 105.93 49.374 105.757 49.7295V55H104.492V47.6035H105.688ZM111.916 51.2402C111.916 50.0872 112.183 49.1712 112.716 48.4922C113.249 47.8086 113.955 47.4668 114.835 47.4668C115.737 47.4668 116.441 47.7858 116.947 48.4238L117.009 47.6035H118.164V54.8223C118.164 55.7793 117.879 56.5335 117.31 57.085C116.744 57.6364 115.983 57.9121 115.026 57.9121C114.493 57.9121 113.971 57.7982 113.461 57.5703C112.951 57.3424 112.561 57.0303 112.292 56.6338L112.948 55.875C113.491 56.5449 114.154 56.8799 114.938 56.8799C115.553 56.8799 116.031 56.7067 116.373 56.3604C116.719 56.014 116.893 55.5264 116.893 54.8975V54.2617C116.387 54.8451 115.696 55.1367 114.821 55.1367C113.955 55.1367 113.254 54.7881 112.716 54.0908C112.183 53.3936 111.916 52.4434 111.916 51.2402ZM113.188 51.3838C113.188 52.2178 113.358 52.874 113.7 53.3525C114.042 53.8265 114.521 54.0635 115.136 54.0635C115.933 54.0635 116.519 53.7012 116.893 52.9766V49.5996C116.505 48.8932 115.924 48.54 115.149 48.54C114.534 48.54 114.053 48.7793 113.707 49.2578C113.361 49.7363 113.188 50.445 113.188 51.3838ZM124.645 55C124.572 54.8542 124.512 54.5944 124.467 54.2207C123.879 54.8314 123.177 55.1367 122.361 55.1367C121.632 55.1367 121.033 54.9316 120.563 54.5215C120.099 54.1068 119.866 53.5827 119.866 52.9492C119.866 52.179 120.158 51.582 120.741 51.1582C121.329 50.7298 122.154 50.5156 123.216 50.5156H124.446V49.9346C124.446 49.4925 124.314 49.1416 124.05 48.8818C123.785 48.6175 123.396 48.4854 122.881 48.4854C122.43 48.4854 122.051 48.5993 121.746 48.8271C121.441 49.055 121.288 49.3307 121.288 49.6543H120.017C120.017 49.2852 120.146 48.9297 120.406 48.5879C120.671 48.2415 121.026 47.9681 121.473 47.7676C121.924 47.5671 122.418 47.4668 122.956 47.4668C123.808 47.4668 124.476 47.681 124.959 48.1094C125.442 48.5332 125.693 49.1188 125.711 49.8662V53.2705C125.711 53.9495 125.798 54.4896 125.971 54.8906V55H124.645ZM122.546 54.0361C122.942 54.0361 123.318 53.9336 123.674 53.7285C124.029 53.5234 124.287 53.2568 124.446 52.9287V51.4111H123.455C121.906 51.4111 121.131 51.8646 121.131 52.7715C121.131 53.168 121.263 53.4779 121.527 53.7012C121.792 53.9245 122.131 54.0361 122.546 54.0361ZM125.13 45.1016C125.13 45.5345 124.938 45.8809 124.556 46.1406C124.173 46.4004 123.674 46.5303 123.059 46.5303C122.439 46.5303 121.938 46.4004 121.555 46.1406C121.172 45.8809 120.98 45.5345 120.98 45.1016H122.02C122.02 45.3522 122.108 45.5482 122.286 45.6895C122.468 45.8262 122.726 45.8945 123.059 45.8945C123.382 45.8945 123.633 45.8239 123.811 45.6826C123.993 45.5368 124.084 45.3431 124.084 45.1016H125.13ZM123.428 43.6113H124.474L123.353 44.9648H122.655L123.428 43.6113ZM129.409 45.8125V47.6035H130.79V48.5811H129.409V53.168C129.409 53.4642 129.471 53.6875 129.594 53.8379C129.717 53.9837 129.926 54.0566 130.223 54.0566C130.368 54.0566 130.569 54.0293 130.824 53.9746V55C130.492 55.0911 130.168 55.1367 129.854 55.1367C129.288 55.1367 128.862 54.9658 128.575 54.624C128.288 54.2822 128.145 53.7969 128.145 53.168V48.5811H126.798V47.6035H128.145V45.8125H129.409ZM138.713 54.1045C139.164 54.1045 139.558 53.9678 139.896 53.6943C140.233 53.4209 140.42 53.0791 140.456 52.6689H141.652C141.63 53.0928 141.484 53.4961 141.215 53.8789C140.946 54.2617 140.586 54.5671 140.135 54.7949C139.688 55.0228 139.214 55.1367 138.713 55.1367C137.706 55.1367 136.904 54.8018 136.307 54.1318C135.714 53.4574 135.418 52.5368 135.418 51.3701V51.1582C135.418 50.4382 135.55 49.7979 135.814 49.2373C136.079 48.6768 136.457 48.2415 136.949 47.9316C137.446 47.6217 138.032 47.4668 138.706 47.4668C139.535 47.4668 140.224 47.7152 140.771 48.2119C141.322 48.7087 141.616 49.3535 141.652 50.1465H140.456C140.42 49.668 140.237 49.276 139.909 48.9707C139.586 48.6608 139.185 48.5059 138.706 48.5059C138.063 48.5059 137.564 48.7383 137.209 49.2031C136.858 49.6634 136.683 50.3311 136.683 51.2061V51.4453C136.683 52.2975 136.858 52.9538 137.209 53.4141C137.56 53.8743 138.061 54.1045 138.713 54.1045ZM147.641 55C147.568 54.8542 147.508 54.5944 147.463 54.2207C146.875 54.8314 146.173 55.1367 145.357 55.1367C144.628 55.1367 144.029 54.9316 143.56 54.5215C143.095 54.1068 142.862 53.5827 142.862 52.9492C142.862 52.179 143.154 51.582 143.737 51.1582C144.325 50.7298 145.15 50.5156 146.212 50.5156H147.442V49.9346C147.442 49.4925 147.31 49.1416 147.046 48.8818C146.782 48.6175 146.392 48.4854 145.877 48.4854C145.426 48.4854 145.048 48.5993 144.742 48.8271C144.437 49.055 144.284 49.3307 144.284 49.6543H143.013C143.013 49.2852 143.143 48.9297 143.402 48.5879C143.667 48.2415 144.022 47.9681 144.469 47.7676C144.92 47.5671 145.414 47.4668 145.952 47.4668C146.804 47.4668 147.472 47.681 147.955 48.1094C148.438 48.5332 148.689 49.1188 148.707 49.8662V53.2705C148.707 53.9495 148.794 54.4896 148.967 54.8906V55H147.641ZM145.542 54.0361C145.938 54.0361 146.314 53.9336 146.67 53.7285C147.025 53.5234 147.283 53.2568 147.442 52.9287V51.4111H146.451C144.902 51.4111 144.127 51.8646 144.127 52.7715C144.127 53.168 144.259 53.4779 144.523 53.7012C144.788 53.9245 145.127 54.0361 145.542 54.0361ZM146.711 44.5H148.242L146.41 46.5098H145.392L146.711 44.5ZM153.656 54.1045C154.107 54.1045 154.502 53.9678 154.839 53.6943C155.176 53.4209 155.363 53.0791 155.399 52.6689H156.596C156.573 53.0928 156.427 53.4961 156.158 53.8789C155.889 54.2617 155.529 54.5671 155.078 54.7949C154.632 55.0228 154.158 55.1367 153.656 55.1367C152.649 55.1367 151.847 54.8018 151.25 54.1318C150.658 53.4574 150.361 52.5368 150.361 51.3701V51.1582C150.361 50.4382 150.493 49.7979 150.758 49.2373C151.022 48.6768 151.4 48.2415 151.893 47.9316C152.389 47.6217 152.975 47.4668 153.649 47.4668C154.479 47.4668 155.167 47.7152 155.714 48.2119C156.265 48.7087 156.559 49.3535 156.596 50.1465H155.399C155.363 49.668 155.181 49.276 154.853 48.9707C154.529 48.6608 154.128 48.5059 153.649 48.5059C153.007 48.5059 152.508 48.7383 152.152 49.2031C151.801 49.6634 151.626 50.3311 151.626 51.2061V51.4453C151.626 52.2975 151.801 52.9538 152.152 53.4141C152.503 53.8743 153.005 54.1045 153.656 54.1045ZM164.457 54.1045C164.908 54.1045 165.302 53.9678 165.64 53.6943C165.977 53.4209 166.164 53.0791 166.2 52.6689H167.396C167.374 53.0928 167.228 53.4961 166.959 53.8789C166.69 54.2617 166.33 54.5671 165.879 54.7949C165.432 55.0228 164.958 55.1367 164.457 55.1367C163.45 55.1367 162.648 54.8018 162.051 54.1318C161.458 53.4574 161.162 52.5368 161.162 51.3701V51.1582C161.162 50.4382 161.294 49.7979 161.559 49.2373C161.823 48.6768 162.201 48.2415 162.693 47.9316C163.19 47.6217 163.776 47.4668 164.45 47.4668C165.28 47.4668 165.968 47.7152 166.515 48.2119C167.066 48.7087 167.36 49.3535 167.396 50.1465H166.2C166.164 49.668 165.981 49.276 165.653 48.9707C165.33 48.6608 164.929 48.5059 164.45 48.5059C163.808 48.5059 163.309 48.7383 162.953 49.2031C162.602 49.6634 162.427 50.3311 162.427 51.2061V51.4453C162.427 52.2975 162.602 52.9538 162.953 53.4141C163.304 53.8743 163.805 54.1045 164.457 54.1045ZM173.385 54.2686C172.893 54.8473 172.17 55.1367 171.218 55.1367C170.429 55.1367 169.828 54.9089 169.413 54.4531C169.003 53.9928 168.796 53.3138 168.791 52.416V47.6035H170.056V52.3818C170.056 53.5029 170.511 54.0635 171.423 54.0635C172.389 54.0635 173.032 53.7035 173.351 52.9834V47.6035H174.615V55H173.412L173.385 54.2686ZM170.548 56.6748C170.548 56.4697 170.609 56.2965 170.732 56.1553C170.86 56.014 171.047 55.9434 171.293 55.9434C171.539 55.9434 171.726 56.014 171.854 56.1553C171.981 56.2965 172.045 56.4697 172.045 56.6748C172.045 56.8799 171.981 57.0508 171.854 57.1875C171.726 57.3242 171.539 57.3926 171.293 57.3926C171.047 57.3926 170.86 57.3242 170.732 57.1875C170.609 57.0508 170.548 56.8799 170.548 56.6748ZM177.732 47.6035L177.767 48.4238C178.309 47.7858 179.04 47.4668 179.961 47.4668C180.995 47.4668 181.7 47.8633 182.073 48.6562C182.319 48.3008 182.638 48.0137 183.03 47.7949C183.427 47.5762 183.894 47.4668 184.432 47.4668C186.054 47.4668 186.879 48.3258 186.906 50.0439V55H185.642V50.1191C185.642 49.5905 185.521 49.1963 185.279 48.9365C185.038 48.6722 184.632 48.54 184.062 48.54C183.593 48.54 183.203 48.6813 182.894 48.9639C182.584 49.2419 182.404 49.6178 182.354 50.0918V55H181.082V50.1533C181.082 49.0778 180.556 48.54 179.503 48.54C178.674 48.54 178.106 48.8932 177.801 49.5996V55H176.536V47.6035H177.732ZM194.009 45.8125V47.6035H195.39V48.5811H194.009V53.168C194.009 53.4642 194.07 53.6875 194.193 53.8379C194.316 53.9837 194.526 54.0566 194.822 54.0566C194.968 54.0566 195.169 54.0293 195.424 53.9746V55C195.091 55.0911 194.768 55.1367 194.453 55.1367C193.888 55.1367 193.462 54.9658 193.175 54.624C192.888 54.2822 192.744 53.7969 192.744 53.168V48.5811H191.397V47.6035H192.744V45.8125H194.009ZM204.769 47.0156C204.769 47.8359 204.6 48.4147 204.263 48.752C203.93 49.0846 203.399 49.2601 202.67 49.2783V55H201.467L201.439 54.2686C200.947 54.8473 200.225 55.1367 199.272 55.1367C198.484 55.1367 197.882 54.9089 197.468 54.4531C197.058 53.9928 196.85 53.3138 196.846 52.416V47.6035H198.11V52.3818C198.11 53.5029 198.566 54.0635 199.478 54.0635C200.444 54.0635 201.086 53.7035 201.405 52.9834V47.6035H202.67V48.499C202.98 48.4899 203.212 48.4466 203.367 48.3691C203.522 48.2871 203.632 48.1641 203.695 48C203.764 47.8359 203.798 47.5078 203.798 47.0156H204.769ZM200.605 46.6465H199.519L197.755 44.6367H199.279L200.605 46.6465ZM208.46 51.0283C208.46 52.0446 208.326 53.0199 208.057 53.9541C207.792 54.8838 207.384 55.7428 206.833 56.5312C206.286 57.3197 205.712 57.8802 205.11 58.2129L204.844 57.4404C205.546 56.9027 206.108 56.0687 206.532 54.9385C206.961 53.8037 207.179 52.5459 207.188 51.165V50.9463C207.188 49.9893 207.088 49.1006 206.888 48.2803C206.687 47.4554 206.407 46.7171 206.047 46.0654C205.691 45.4137 205.29 44.9056 204.844 44.541L205.11 43.7686C205.712 44.1012 206.284 44.6572 206.826 45.4365C207.373 46.2158 207.781 47.0749 208.05 48.0137C208.323 48.9525 208.46 49.9574 208.46 51.0283Z" fill="#BFBFBF"/>
<path d="M165.5 17.6562H164.563C164.494 17.6562 164.438 17.7125 164.438 17.7812V25.875H156.844V24.7344C156.844 24.6297 156.722 24.5703 156.641 24.6359L154.424 26.3859C154.409 26.3976 154.397 26.4126 154.389 26.4296C154.38 26.4467 154.376 26.4654 154.376 26.4844C154.376 26.5033 154.38 26.5221 154.389 26.5391C154.397 26.5562 154.409 26.5711 154.424 26.5828L156.641 28.3328C156.724 28.3984 156.844 28.3391 156.844 28.2344V27.0625H164.625C165.177 27.0625 165.625 26.6141 165.625 26.0625V17.7812C165.625 17.7125 165.569 17.6562 165.5 17.6562Z" fill="#8C8C8C"/>
</svg>
