<svg width="180" height="32" viewBox="0 0 180 32" fill="none" xmlns="http://www.w3.org/2000/svg">
<path d="M59.1251 31.5814H52.2722V18.8036C52.2722 17.7146 52.1264 16.8434 51.9077 16.1174C51.6889 15.3914 51.3244 14.8832 50.9599 14.4476C50.5225 14.012 50.0122 13.7216 49.4289 13.5764C48.8457 13.4312 48.1895 13.3586 47.3876 13.3586C46.6586 13.3586 45.9295 13.5038 45.3463 13.7942C44.6902 14.0846 44.1798 14.4476 43.7424 14.9558C43.305 15.464 42.9405 16.0448 42.7217 16.7708C42.503 17.4242 42.3572 18.2228 42.3572 19.0215V31.7266H35.5772V0H42.2843V9.58333C43.1592 9.00252 44.1069 8.42171 45.2734 8.05871C46.3669 7.6231 47.6063 7.4053 48.8457 7.4053C50.6683 7.4053 52.1993 7.6957 53.5115 8.20391C54.8238 8.71211 55.9174 9.43812 56.7193 10.3819C57.5213 11.3257 58.1774 12.4874 58.5419 13.9394C58.9064 15.3188 59.1251 16.916 59.1251 18.6584V31.5814ZM128.457 28.0966C128.457 27.5884 128.53 27.1528 128.748 26.7172C128.894 26.2815 129.186 25.9185 129.478 25.5555C129.769 25.2651 130.207 24.9747 130.644 24.7569C131.081 24.5391 131.592 24.4665 132.175 24.4665C132.758 24.4665 133.269 24.5391 133.706 24.7569C134.143 24.9747 134.581 25.1925 134.872 25.5555C135.237 25.8459 135.456 26.2815 135.601 26.7172C135.747 27.1528 135.893 27.5884 135.893 28.0966C135.893 28.6048 135.82 29.0404 135.601 29.476C135.456 29.9116 135.164 30.2746 134.872 30.6376C134.508 30.928 134.143 31.2184 133.706 31.3636C133.269 31.5814 132.758 31.654 132.175 31.654C131.592 31.654 131.081 31.5814 130.644 31.3636C130.207 31.1458 129.769 30.928 129.478 30.6376C129.186 30.3472 128.894 29.9842 128.748 29.5486C128.53 29.0404 128.457 28.6048 128.457 28.0966ZM102.795 26.0637C102.357 26.0637 101.92 25.9911 101.555 25.9185C101.191 25.8459 100.826 25.6281 100.535 25.3377C100.243 25.0473 100.024 24.6843 99.8785 24.2487C99.7327 23.8131 99.6598 23.2323 99.6598 22.5063V13.9394H106.294V8.13131H99.6598V1.81502L94.7752 1.88762H92.8797V8.27651H91.7132H89.3074V9.58333V14.012H92.9526V14.9558V22.6515C92.9526 24.5391 93.1713 26.1363 93.6816 27.298C94.192 28.4596 94.8481 29.4034 95.723 30.0568C96.5978 30.7102 97.5456 31.1458 98.712 31.3636C99.8785 31.5814 101.045 31.7266 102.357 31.7266H106.804L106.877 26.2089H102.795V26.0637ZM121.75 26.0637C121.312 26.0637 120.875 25.9911 120.51 25.9185C120.146 25.8459 119.781 25.6281 119.49 25.3377C119.198 25.0473 118.979 24.6843 118.834 24.2487C118.688 23.8131 118.615 23.2323 118.615 22.5063V13.9394H125.249V8.13131H118.615V1.81502L113.73 1.88762H111.835V8.27651H110.668H108.262V8.78472V13.9394H111.908V14.8832V22.5789C111.908 24.4665 112.126 26.0637 112.637 27.2254C113.147 28.387 113.803 29.3308 114.678 29.9842C115.553 30.6376 116.501 31.0732 117.667 31.291C118.834 31.5088 120 31.654 121.312 31.654H125.759L125.832 26.1363H121.75V26.0637ZM15.0182 16.6982C15.0182 15.5366 14.0705 14.5928 12.904 14.5928C11.7375 14.5928 10.7898 15.5366 10.7898 16.6982C10.7898 17.8598 11.7375 18.8036 12.904 18.8036C14.0705 18.8036 15.0182 17.7872 15.0182 16.6982ZM18.8821 16.4804C18.8821 17.642 19.8299 18.5858 20.9964 18.5858C22.1628 18.5858 23.1106 17.642 23.1106 16.4804C23.1106 15.3188 22.1628 14.375 20.9964 14.375C19.8299 14.375 18.8821 15.3188 18.8821 16.4804ZM23.7667 22.2885C23.1835 23.0145 22.5273 23.5953 21.7254 24.1035C20.9964 24.6117 20.1215 24.9747 19.2467 25.1925C18.3718 25.4103 17.4241 25.5555 16.5492 25.5555C15.2369 25.5555 13.9976 25.3377 12.8311 24.8295C12.4666 24.6843 12.1021 24.4665 11.7375 24.2487L7.14459 25.7007L8.31106 20.6913C8.09234 20.3283 7.94654 19.9653 7.80073 19.6023C7.2904 18.4406 7.07169 17.1338 7.07169 15.7544C7.07169 14.375 7.2904 13.0682 7.80073 11.9066C8.31106 10.7449 8.96719 9.65593 9.84204 8.78472C10.7169 7.9135 11.7375 7.2601 12.904 6.75189C14.0705 6.24368 15.3098 6.02588 16.6221 6.02588C17.5699 6.02588 18.4447 6.17108 19.3196 6.38888C20.1944 6.60669 20.9964 7.04229 21.7983 7.4779C22.5273 7.9861 23.2564 8.56691 23.8396 9.29292C24.4228 10.0189 24.8603 10.8175 25.2248 11.7614H32.4423C32.1507 10.3819 31.7132 9.22032 31.13 8.05871C30.5468 6.96969 29.8177 5.95328 29.0158 5.08207C28.1409 4.35606 27.1932 3.55745 26.2454 2.90404C25.2248 2.25063 24.2041 1.66982 23.1835 1.30682C22.0899 0.871211 20.9964 0.580808 19.9028 0.363005C18.8092 0.145202 17.7157 0.072601 16.6221 0.072601C15.0911 0.072601 13.633 0.290404 12.175 0.653409C10.7169 0.943812 9.40462 1.45202 8.16525 2.17803C6.92588 2.90404 5.83232 3.63005 4.81166 4.57386C3.79101 5.51767 2.91616 6.60669 2.26002 7.7683C1.53098 8.92992 0.947752 10.2367 0.583232 11.5436C0.218712 12.923 0 14.3024 0 15.827C0 17.279 0.218712 18.731 0.583232 20.0379C0.947752 21.4173 1.53098 22.6515 2.26002 23.8131C2.98906 24.9747 3.86391 26.0637 4.81166 27.0076C5.83232 27.9514 6.92588 28.8226 8.16525 29.476C9.40462 30.1294 10.7169 30.7102 12.1021 31.0732C13.4872 31.4362 15.0182 31.654 16.5492 31.654C17.6428 31.654 18.7363 31.5088 19.8299 31.291C20.9235 31.0732 22.017 30.7102 23.1106 30.2746C24.2041 29.839 25.2248 29.2582 26.1725 28.6048C27.1203 27.9514 28.068 27.1528 28.87 26.2815C29.6719 25.4103 30.401 24.3939 30.9842 23.3775C31.5674 22.2885 32.0049 21.1269 32.2965 19.8201H25.079C24.7874 20.7639 24.3499 21.5625 23.7667 22.2885ZM81.5067 8.13131V10.7449C81.288 10.3093 80.9234 9.94633 80.5589 9.65593C79.9757 9.22032 79.3925 8.85732 78.6634 8.49431C78.5905 8.42171 78.4447 8.42171 78.3718 8.34911C78.3718 8.34911 78.2989 8.34911 78.226 8.27651C77.497 7.9861 76.9137 7.7683 76.695 7.6957C75.7473 7.4053 74.7266 7.3327 73.633 7.3327C71.7375 7.3327 70.0608 7.6231 68.5298 8.27651C66.9988 8.92992 65.7594 9.80113 64.6659 10.8901C63.6452 11.9792 62.7704 13.286 62.26 14.738C61.6768 16.19 61.3852 17.7872 61.3852 19.4571C61.3852 21.1269 61.6768 22.6515 62.26 24.1761C62.8433 25.6281 63.6452 26.935 64.7388 28.024C65.8323 29.113 67.0717 29.9842 68.6027 30.6376C70.1337 31.291 71.8104 31.5814 73.633 31.5814C74.7995 31.5814 75.8202 31.4362 76.8408 31.1458C76.9137 31.1458 76.9137 31.1458 76.9866 31.0732C77.1324 31.0006 77.4241 30.928 77.7157 30.8554C78.7363 30.4198 79.6841 29.9116 80.4131 29.3308C80.7776 29.0404 81.0693 28.75 81.3609 28.387V31.5814H86.8287V8.13131H81.5067ZM79.9028 22.0707C79.6112 22.8693 79.1738 23.5227 78.5905 24.0309C78.0073 24.6117 77.4241 24.9747 76.6221 25.2651C75.8931 25.5555 75.0911 25.7007 74.2892 25.7007C73.4872 25.7007 72.6853 25.5555 71.9563 25.2651C71.2272 24.9747 70.5711 24.5391 69.9878 23.9583C69.4046 23.3775 68.9672 22.7241 68.6756 21.9981C68.384 21.1995 68.1652 20.3283 68.1652 19.3845C68.1652 18.4406 68.3111 17.5694 68.6027 16.8434C68.8943 16.0448 69.3317 15.3914 69.9149 14.8832C70.4253 14.3024 71.0814 13.9394 71.8104 13.649C72.5395 13.3586 73.3414 13.2134 74.2163 13.2134C75.0182 13.2134 75.8202 13.3586 76.5492 13.649C77.2783 13.9394 77.9344 14.375 78.5176 14.8832C79.1008 15.464 79.5383 16.1174 79.8299 16.8434C80.1215 17.642 80.3402 18.4406 80.3402 19.3845C80.4131 20.4735 80.1944 21.2721 79.9028 22.0707ZM173.001 10.0189H177.011C178.615 10.0189 179.927 11.3257 179.927 12.923V31.5814H172.928V10.0189H173.001ZM166.804 1.01641H159.514L137.424 31.5814H145.589L160.024 10.6723V21.2721V26.2089V31.5088H166.877L166.804 1.01641ZM180 4.50126C180 2.61363 178.469 1.01641 176.501 1.01641C174.605 1.01641 173.001 2.54103 173.001 4.50126V7.9861H176.501C178.469 7.9861 180 6.46148 180 4.50126Z" fill="#FFBE07"/>
</svg>
