<svg width="16" height="16" viewBox="0 0 16 16" fill="none" xmlns="http://www.w3.org/2000/svg">
<path fill-rule="evenodd" clip-rule="evenodd" d="M7.99935 2.00002C4.68564 2.00002 1.99935 4.68631 1.99935 8.00002C1.99935 11.3137 4.68564 14 7.99935 14C11.3131 14 13.9993 11.3137 13.9993 8.00002C13.9993 4.68631 11.3131 2.00002 7.99935 2.00002ZM0.666016 8.00002C0.666016 3.94993 3.94926 0.666687 7.99935 0.666687C12.0494 0.666687 15.3327 3.94993 15.3327 8.00002C15.3327 12.0501 12.0494 15.3334 7.99935 15.3334C3.94926 15.3334 0.666016 12.0501 0.666016 8.00002Z" fill="#8C8C8C"/>
<path fill-rule="evenodd" clip-rule="evenodd" d="M7.99935 7.33335C8.36754 7.33335 8.66602 7.63183 8.66602 8.00002V10.6667C8.66602 11.0349 8.36754 11.3334 7.99935 11.3334C7.63116 11.3334 7.33268 11.0349 7.33268 10.6667V8.00002C7.33268 7.63183 7.63116 7.33335 7.99935 7.33335Z" fill="#8C8C8C"/>
<path d="M8.66602 5.33335C8.66602 5.70154 8.36754 6.00002 7.99935 6.00002C7.63116 6.00002 7.33268 5.70154 7.33268 5.33335C7.33268 4.96516 7.63116 4.66669 7.99935 4.66669C8.36754 4.66669 8.66602 4.96516 8.66602 5.33335Z" fill="#8C8C8C"/>
</svg>
