<svg width="16" height="16" viewBox="0 0 16 16" fill="none" xmlns="http://www.w3.org/2000/svg">
<path d="M15.5009 6.43333H9.85094L12.1343 4.08333C9.85927 1.83333 6.17594 1.75 3.90094 4C1.62594 6.25833 1.62594 9.9 3.90094 12.1583C6.17594 14.4167 9.85927 14.4167 12.1343 12.1583C13.2676 11.0417 13.8343 9.73333 13.8343 8.08333H15.5009C15.5009 9.73333 14.7676 11.875 13.3009 13.325C10.3759 16.225 5.62594 16.225 2.70094 13.325C-0.215727 10.4333 -0.240727 5.73333 2.68427 2.84167C5.60927 -0.0500001 10.3009 -0.0500001 13.2259 2.84167L15.5009 0.5V6.43333ZM8.41761 4.66667V8.20833L11.3343 9.94167L10.7343 10.95L7.16761 8.83333V4.66667H8.41761Z" fill="#595959"/>
</svg>
