<svg width="16" height="16" viewBox="0 0 16 16" fill="none" xmlns="http://www.w3.org/2000/svg">
<path fill-rule="evenodd" clip-rule="evenodd" d="M3.3335 2.66683C3.15668 2.66683 2.98712 2.73707 2.86209 2.86209C2.73707 2.98712 2.66683 3.15668 2.66683 3.3335V12.6668C2.66683 12.8436 2.73707 13.0132 2.86209 13.1382C2.98712 13.2633 3.15669 13.3335 3.3335 13.3335H12.6668C12.8436 13.3335 13.0132 13.2633 13.1382 13.1382C13.2633 13.0132 13.3335 12.8436 13.3335 12.6668V5.60964L10.3907 2.66683H3.3335ZM1.91928 1.91928C2.29436 1.54421 2.80306 1.3335 3.3335 1.3335H10.6668C10.8436 1.3335 11.0132 1.40373 11.1382 1.52876L14.4716 4.86209C14.5966 4.98712 14.6668 5.15669 14.6668 5.3335V12.6668C14.6668 13.1973 14.4561 13.706 14.081 14.081C13.706 14.4561 13.1973 14.6668 12.6668 14.6668H3.3335C2.80306 14.6668 2.29436 14.4561 1.91928 14.081C1.54421 13.706 1.3335 13.1973 1.3335 12.6668V3.3335C1.3335 2.80306 1.54421 2.29436 1.91928 1.91928Z" fill="#8C8C8C"/>
<path fill-rule="evenodd" clip-rule="evenodd" d="M4.00016 8.66683C4.00016 8.29864 4.29864 8.00016 4.66683 8.00016H11.3335C11.7017 8.00016 12.0002 8.29864 12.0002 8.66683V14.0002C12.0002 14.3684 11.7017 14.6668 11.3335 14.6668C10.9653 14.6668 10.6668 14.3684 10.6668 14.0002V9.3335H5.3335V14.0002C5.3335 14.3684 5.03502 14.6668 4.66683 14.6668C4.29864 14.6668 4.00016 14.3684 4.00016 14.0002V8.66683Z" fill="#8C8C8C"/>
<path fill-rule="evenodd" clip-rule="evenodd" d="M4.66683 1.3335C5.03502 1.3335 5.3335 1.63197 5.3335 2.00016V4.66683H10.0002C10.3684 4.66683 10.6668 4.96531 10.6668 5.3335C10.6668 5.70169 10.3684 6.00016 10.0002 6.00016H4.66683C4.29864 6.00016 4.00016 5.70169 4.00016 5.3335V2.00016C4.00016 1.63197 4.29864 1.3335 4.66683 1.3335Z" fill="#8C8C8C"/>
</svg>
