<svg width="16" height="16" viewBox="0 0 16 16" fill="none" xmlns="http://www.w3.org/2000/svg">
<path fill-rule="evenodd" clip-rule="evenodd" d="M12.958 2.0658C13.189 2.17682 13.3359 2.4104 13.3359 2.66667V13.3333C13.3359 13.5896 13.189 13.8232 12.958 13.9342C12.7271 14.0452 12.4529 14.014 12.2528 13.8539L5.58614 8.52059C5.428 8.39407 5.33594 8.20253 5.33594 8.00001C5.33594 7.79748 5.428 7.60594 5.58614 7.47943L12.2528 2.14609C12.4529 1.986 12.7271 1.95479 12.958 2.0658ZM7.06979 8.00001L12.0026 11.9463V4.05376L7.06979 8.00001Z" fill="#8C8C8C"/>
<path fill-rule="evenodd" clip-rule="evenodd" d="M3.33073 2.66797C3.69892 2.66797 3.9974 2.96645 3.9974 3.33464V12.668C3.9974 13.0362 3.69892 13.3346 3.33073 13.3346C2.96254 13.3346 2.66406 13.0362 2.66406 12.668V3.33464C2.66406 2.96645 2.96254 2.66797 3.33073 2.66797Z" fill="#8C8C8C"/>
</svg>
