<svg width="24" height="24" viewBox="0 0 24 24" fill="none" xmlns="http://www.w3.org/2000/svg">
<path d="M15 12H9V19.5H15V12Z" fill="#EAC3A2"/>
<path d="M17.5 6V10C17.5 13.0325 15.0325 15.5 12 15.5C8.9675 15.5 6.5 13.0325 6.5 10V6H17.5Z" fill="#F1D9C5"/>
<path d="M15.5 20.5L15 17C14.156 17.625 13.123 18 12 18C10.877 18 9.844 17.625 9.009 17L8.5 20.5L9.5 24H14.5L15.5 20.5Z" fill="white"/>
<path d="M6.5 5.99942C6.5 4.34292 7.7675 2.54742 9.327 1.99042L13.03 0.667916C13.2895 0.575416 13.5995 0.698916 13.722 0.943916L14.5 2.49992C16.157 2.49992 17.5 3.84642 17.5 5.49992V8.49992C17.5 7.11942 16.3805 5.99992 15 5.99992H9C7.6195 5.99992 6.5 7.11942 6.5 8.49992V5.99942Z" fill="#87613E"/>
<path d="M10.5 24L11.5 21H12.5L13.5 24H10.5Z" fill="#EA9860"/>
<path d="M11.5007 20.9999H12.5007L13.5932 19.9074C13.8082 19.6924 13.7832 19.3364 13.5397 19.1539L12.3007 18.2249C12.1227 18.0914 11.8787 18.0914 11.7007 18.2249L10.4617 19.1539C10.2182 19.3364 10.1932 19.6924 10.4082 19.9074L11.5007 20.9999Z" fill="#EA9860"/>
<path d="M10 24L9.009 17L2.377 19.8985C1.6165 20.2305 1 21.175 1 22.0045V23.4985C1 23.7755 1.2255 24 1.4975 24H10Z" fill="#444444"/>
<path d="M14 24L14.991 17L21.623 19.8985C22.3835 20.2305 23 21.175 23 22.0045V23.4985C23 23.7755 22.7745 24 22.5025 24H14Z" fill="#444444"/>
</svg>
