<svg width="24" height="24" viewBox="0 0 24 24" fill="none" xmlns="http://www.w3.org/2000/svg">
<path d="M12 20.75C7.16751 20.75 3.25 16.8325 3.25 12C3.25 7.16751 7.16751 3.25 12 3.25C16.8325 3.25 20.75 7.16751 20.75 12C20.75 16.8325 16.8325 20.75 12 20.75Z" fill="white"/>
<path d="M12.0007 21.5834C17.2851 21.5834 21.584 17.2842 21.584 12C21.584 6.7158 17.2851 2.41669 12.0007 2.41669C6.71623 2.41669 2.41732 6.7158 2.41732 12C2.41732 17.2842 6.71623 21.5834 12.0007 21.5834ZM12.0007 4.08335C16.3659 4.08335 19.9173 7.63479 19.9173 12C19.9173 16.3653 16.3659 19.9167 12.0007 19.9167C7.63542 19.9167 4.08398 16.3653 4.08398 12C4.08398 7.63479 7.63542 4.08335 12.0007 4.08335Z" fill="#43A6DD"/>
<path d="M11.9993 12.4167C12.2297 12.4167 12.416 12.2301 12.416 12V6.58335C12.416 6.35325 12.2297 6.16669 11.9993 6.16669C11.769 6.16669 11.5827 6.35325 11.5827 6.58335V12C11.5827 12.2301 11.769 12.4167 11.9993 12.4167Z" fill="#223E49"/>
<path d="M6.99935 12.4166H11.9993C12.2297 12.4166 12.416 12.2301 12.416 12C12.416 11.7699 12.2297 11.5833 11.9993 11.5833H6.99935C6.76904 11.5833 6.58268 11.7699 6.58268 12C6.58268 12.2301 6.76904 12.4166 6.99935 12.4166Z" fill="#223E49"/>
<path d="M15.7497 17C15.8425 17 15.9356 16.9691 16.0129 16.9058C16.1912 16.7601 16.2176 16.4977 16.0719 16.3194L12.3219 11.7361C12.1759 11.5583 11.9138 11.532 11.7356 11.6775C11.5574 11.8232 11.5309 12.0856 11.6766 12.2639L15.4266 16.8472C15.5092 16.9479 15.6288 17 15.7497 17Z" fill="#E86C60"/>
<path d="M12 13.25C11.3096 13.25 10.75 12.6904 10.75 12C10.75 11.3096 11.3096 10.75 12 10.75C12.6904 10.75 13.25 11.3096 13.25 12C13.25 12.6904 12.6904 13.25 12 13.25Z" fill="#223E49"/>
</svg>
